<svg xmlns="http://www.w3.org/2000/svg" width="32" height="32" viewBox="0 0 32 32">
  <rect width="32" height="32" fill="#3e474e"/>
  <rect width="32" height="1" fill="#EEEEEE" fill-opacity=".05"/>
  <g fill="#EEEEEE">
    <circle cx="16" cy="16" r="12" opacity=".08"/>
    <circle cx="16" cy="16" r="12" opacity=".12"/>
    <path d="m10 18 1.41 1.41 4.59-4.59 4.59 4.59 1.41-1.41-6-6z" opacity=".6"/>
  </g>
</svg>
